\relax 
\providecommand\HyperFirstAtBeginDocument{\AtBeginDocument}
\HyperFirstAtBeginDocument{\ifx\hyper@anchor\@undefined
\global\let\oldcontentsline\contentsline
\gdef\contentsline#1#2#3#4{\oldcontentsline{#1}{#2}{#3}}
\global\let\oldnewlabel\newlabel
\gdef\newlabel#1#2{\newlabelxx{#1}#2}
\gdef\newlabelxx#1#2#3#4#5#6{\oldnewlabel{#1}{{#2}{#3}}}
\AtEndDocument{\ifx\hyper@anchor\@undefined
\let\contentsline\oldcontentsline
\let\newlabel\oldnewlabel
\fi}
\fi}
\global\let\hyper@last\relax 
\gdef\HyperFirstAtBeginDocument#1{#1}
\providecommand*\HyPL@Entry[1]{}
\HyPL@Entry{0<</S/D>>}
\select@language {greek}
\@writefile{toc}{\select@language {greek}}
\@writefile{lof}{\select@language {greek}}
\@writefile{lot}{\select@language {greek}}
\HyPL@Entry{1<</S/D>>}
\@writefile{toc}{\contentsline {section}{\numberline {1}Ασυμπτωτικός συμβολισμός, Αναδρομικές Σχέσεις}{1}{section.1}}
\@writefile{toc}{\contentsline {section}{\numberline {2}Ταξινόμηση}{4}{section.2}}
\@writefile{toc}{\contentsline {section}{\numberline {3}Αναζήτηση}{5}{section.3}}
\@writefile{toc}{\contentsline {subsection}{\numberline {3.1}(α)}{5}{subsection.3.1}}
\@writefile{loa}{\contentsline {algorithm}{\numberline {1}{\ignorespaces \textgreek {Άσκηση 3(α)}}}{6}{algorithm.1}}
\select@language {greek}
\@writefile{toc}{\select@language {greek}}
\@writefile{lof}{\select@language {greek}}
\@writefile{lot}{\select@language {greek}}
\@writefile{toc}{\contentsline {subsection}{\numberline {3.2}(β)}{6}{subsection.3.2}}
\@writefile{toc}{\contentsline {section}{\numberline {4}Θέση για το Πατητήρι}{7}{section.4}}
