\relax 
\providecommand\HyperFirstAtBeginDocument{\AtBeginDocument}
\HyperFirstAtBeginDocument{\ifx\hyper@anchor\@undefined
\global\let\oldcontentsline\contentsline
\gdef\contentsline#1#2#3#4{\oldcontentsline{#1}{#2}{#3}}
\global\let\oldnewlabel\newlabel
\gdef\newlabel#1#2{\newlabelxx{#1}#2}
\gdef\newlabelxx#1#2#3#4#5#6{\oldnewlabel{#1}{{#2}{#3}}}
\AtEndDocument{\ifx\hyper@anchor\@undefined
\let\contentsline\oldcontentsline
\let\newlabel\oldnewlabel
\fi}
\fi}
\global\let\hyper@last\relax 
\gdef\HyperFirstAtBeginDocument#1{#1}
\providecommand*\HyPL@Entry[1]{}
\HyPL@Entry{0<</S/D>>}
\select@language {greek}
\@writefile{toc}{\select@language {greek}}
\@writefile{lof}{\select@language {greek}}
\@writefile{lot}{\select@language {greek}}
\HyPL@Entry{1<</S/D>>}
\@writefile{toc}{\contentsline {section}{\numberline {1}Πρβολή Ταινιών}{1}{section.1}}
\@writefile{toc}{\contentsline {section}{\numberline {2}Κατευθυνόμενο Μονοπάτι Hamilton σε DAG}{1}{section.2}}
\@writefile{toc}{\contentsline {section}{\numberline {3}Συντομότερος Κύκλος σε Διμερές Γράφημα}{2}{section.3}}
\@writefile{toc}{\contentsline {section}{\numberline {4}Μοναδικότητα Ελάχιστου Συνδεκτικού Δέντρου}{2}{section.4}}
\@writefile{lof}{\contentsline {subfigure}{\numberline{(\greeknumber{\c@subfigure })}{\ignorespaces {Initial}}}{2}{subfigure.1.1}}
\@writefile{lof}{\contentsline {subfigure}{\numberline{(\greeknumber{\c@subfigure })}{\ignorespaces {MST}}}{2}{subfigure.1.2}}
\@writefile{loa}{\contentsline {algorithm}{\numberline {1}{\ignorespaces \textgreek {Άσκηση 4}\relax }}{4}{algorithm.1}}
\select@language {greek}
\@writefile{toc}{\select@language {greek}}
\@writefile{lof}{\select@language {greek}}
\@writefile{lot}{\select@language {greek}}
\@writefile{toc}{\contentsline {section}{\numberline {5}Υπολογισμός Ελάχιστου Συνδεκτικού Δέντρου με Διαγραφή Ακμών}{4}{section.5}}
