\relax 
\@input{title/title.aux}
\@writefile{toc}{\contentsline {section}{\numberline {1}Ασυμπτωτικός συμβολισμός, Αναδρομικές Σχέσεις}{1}}
\@writefile{toc}{\contentsline {section}{\numberline {2}Ταξινόμηση σε Πίνακα με Πολλά Ίδια Στοιχεία}{2}}
\@writefile{toc}{\contentsline {section}{\numberline {3}Δυαδική Αναζήτηση}{2}}
\@writefile{toc}{\contentsline {section}{\numberline {4}Συλλογή Comics}{3}}
\@writefile{toc}{\contentsline {section}{\numberline {5}Πολυκατοικίες χωρίς Θέα}{3}}
