\select@language {greek}
\contentsline {section}{\numberline {1}Δρόμος προς το σχολείο (trlights)}{1}{section.1}
\contentsline {section}{\numberline {2}Πάσο (paso)}{2}{section.2}
\contentsline {section}{\numberline {3}Επιχείρηση ενυδρείο (aquarium)}{3}{section.3}
\contentsline {section}{\numberline {4}Συλλογή Επαναστατών (rebels)}{4}{section.4}
