\relax 
\select@language{english}
\@writefile{toc}{\select@language{english}}
\@writefile{lof}{\select@language{english}}
\@writefile{lot}{\select@language{english}}
\@writefile{toc}{\contentsline {section}{\numberline {1}Introduction}{4}}
\@writefile{toc}{\contentsline {part}{I\hspace  {1em}Competitive Diffusion in Networks}{7}}
\citation{Domingos01}
\citation{Domingos02}
\citation{KKT03}
\citation{KKT05}
\citation{mossel07}
\citation{nemhauser77}
\citation{nemhauser78}
\citation{KKT03}
\@writefile{toc}{\contentsline {section}{\numberline {2}Influence Maximization Problem}{8}}
\citation{KKT03}
\@writefile{toc}{\contentsline {subsection}{\numberline {2.1}Modeling the world}{9}}
\citation{KKT03}
\citation{KKT05}
\citation{KKT03}
\@writefile{toc}{\contentsline {subsection}{\numberline {2.2}An inapproximability result for the general case}{10}}
\citation{KKT03}
\citation{mossel07}
\@writefile{toc}{\contentsline {subsection}{\numberline {2.3}Submodularity of influence}{11}}
\citation{Bharathi07}
\citation{KKT03}
\@writefile{toc}{\contentsline {section}{\numberline {3}Competitive Diffusion from an algorithmic point of view}{13}}
\@writefile{toc}{\contentsline {subsection}{\numberline {3.1}The first attempts}{13}}
\citation{Borodin10}
\@writefile{toc}{\contentsline {subsection}{\numberline {3.2}Threshold models}{15}}
\@writefile{lof}{\contentsline {figure}{\numberline {1}{\ignorespaces Gadget of the reduction}}{16}}
\citation{Apt11}
\citation{Kostka08}
\citation{Clark11}
\citation{Kostka08}
\@writefile{toc}{\contentsline {subsection}{\numberline {3.3}Leader-Follower models}{17}}
